%YAML 1.1
%TAG !u! tag:unity3d.com,2011:
--- !u!1045 &1
EditorBuildSettings:
  m_ObjectHideFlags: 0
  serializedVersion: 2
  m_Scenes:
  - enabled: 0
    path: 
    guid: 2cda990e2423bbf4892e6590ba056729
  - enabled: 1
    path: Assets/Scenes/MainMenu.unity
    guid: eaf421d4d7cca3b4684e491567187854
  - enabled: 1
    path: Assets/Scenes/Heroes.unity
    guid: acb43edd242a034489d60084b35911b6
  - enabled: 1
    path: Assets/Scenes/Fight.unity
    guid: 4882ad89037d78c4aad01c89a0f032f6
  m_configObjects: {}
